module price-feeder

go 1.18

require (
	github.com/BurntSushi/toml v1.2.1
	github.com/Team-Kujira/core v0.8.0
	github.com/cosmos/cosmos-sdk v0.46.8
	github.com/go-playground/validator/v10 v10.11.0
	github.com/golangci/golangci-lint v1.50.1
	github.com/gorilla/mux v1.8.0
	github.com/gorilla/websocket v1.5.0
	github.com/ignite/cli v0.26.0
	github.com/justinas/alice v1.2.0
	github.com/mitchellh/mapstructure v1.5.0
	github.com/rs/cors v1.8.2
	github.com/rs/zerolog v1.27.0
	github.com/sirkon/goproxy v1.4.8
	github.com/spf13/cobra v1.6.1
	github.com/stretchr/testify v1.8.1
	github.com/tendermint/tendermint v0.34.24
	gitlab.com/mayachain/aztec v0.0.1
	golang.org/x/sync v0.1.0
	google.golang.org/grpc v1.51.0
	gopkg.in/yaml.v3 v3.0.1
)

require (
	cloud.google.com/go v0.105.0 // indirect
	cloud.google.com/go/compute v1.13.0 // indirect
	cloud.google.com/go/compute/metadata v0.2.1 // indirect
	cloud.google.com/go/iam v0.8.0 // indirect
	cloud.google.com/go/storage v1.28.0 // indirect
	cosmossdk.io/errors v1.0.0-beta.7 // indirect
	cosmossdk.io/math v1.0.0-beta.4 // indirect
	github.com/Abirdcfly/dupword v0.0.7 // indirect
	github.com/aws/aws-sdk-go v1.40.45 // indirect
	github.com/bgentry/go-netrc v0.0.0-20140422174119-9fd32a8b3d3d // indirect
	github.com/cenkalti/backoff/v4 v4.1.3 // indirect
	github.com/chzyer/readline v0.0.0-20180603132655-2972be24d48e // indirect
	github.com/cockroachdb/apd/v2 v2.0.2 // indirect
	github.com/cosmos/cosmos-proto v1.0.0-alpha8 // indirect
	github.com/cosmos/ibc-go/v6 v6.1.0 // indirect
	github.com/creachadair/taskgroup v0.3.2 // indirect
	github.com/curioswitch/go-reassign v0.2.0 // indirect
	github.com/golang/glog v1.0.0 // indirect
	github.com/golang/groupcache v0.0.0-20210331224755-41bb18bfe9da // indirect
	github.com/google/uuid v1.3.0 // indirect
	github.com/googleapis/enterprise-certificate-proxy v0.2.0 // indirect
	github.com/googleapis/gax-go/v2 v2.7.0 // indirect
	github.com/gravity-devs/liquidity/v2 v2.0.0 // indirect
	github.com/grpc-ecosystem/grpc-gateway/v2 v2.14.0 // indirect
	github.com/hashicorp/go-cleanhttp v0.5.2 // indirect
	github.com/hashicorp/go-getter v1.6.1 // indirect
	github.com/hashicorp/go-safetemp v1.0.0 // indirect
	github.com/jmespath/go-jmespath v0.4.0 // indirect
	github.com/kkHAIKE/contextcheck v1.1.3 // indirect
	github.com/manifoldco/promptui v0.9.0 // indirect
	github.com/maratori/testableexamples v1.0.0 // indirect
	github.com/mitchellh/go-testing-interface v1.0.0 // indirect
	github.com/sashamelentyev/interfacebloat v1.1.0 // indirect
	github.com/sashamelentyev/usestdlibvars v1.20.0 // indirect
	github.com/tidwall/btree v1.5.0 // indirect
	github.com/timonwong/loggercheck v0.9.3 // indirect
	github.com/ulikunitz/xz v0.5.8 // indirect
	github.com/zondax/ledger-go v0.14.1 // indirect
	go.opencensus.io v0.24.0 // indirect
	go.uber.org/goleak v1.1.12 // indirect
	golang.org/x/exp v0.0.0-20221212164502-fae10dda9338 // indirect
	golang.org/x/oauth2 v0.3.0 // indirect
	golang.org/x/xerrors v0.0.0-20220907171357-04be3eba64a2 // indirect
	google.golang.org/api v0.103.0 // indirect
	google.golang.org/appengine v1.6.7 // indirect
	sigs.k8s.io/yaml v1.3.0 // indirect
)

require (
	4d63.com/gochecknoglobals v0.1.0 // indirect
	filippo.io/edwards25519 v1.0.0-rc.1 // indirect
	github.com/99designs/keyring v1.2.1 // indirect
	github.com/Antonboom/errname v0.1.7 // indirect
	github.com/Antonboom/nilnil v0.1.1 // indirect
	github.com/ChainSafe/go-schnorrkel v0.0.0-20200405005733-88cbf1b4c40d // indirect
	github.com/Djarvur/go-err113 v0.0.0-20210108212216-aea10b59be24 // indirect
	github.com/GaijinEntertainment/go-exhaustruct/v2 v2.3.0 // indirect
	github.com/Masterminds/semver v1.5.0 // indirect
	github.com/OpenPeeDeeP/depguard v1.1.1 // indirect
	github.com/Workiva/go-datastructures v1.0.53 // indirect
	github.com/alexkohler/prealloc v1.0.0 // indirect
	github.com/alingse/asasalint v0.0.11 // indirect
	github.com/armon/go-metrics v0.4.1
	github.com/ashanbrown/forbidigo v1.3.0 // indirect
	github.com/ashanbrown/makezero v1.1.1 // indirect
	github.com/beorn7/perks v1.0.1 // indirect
	github.com/bgentry/speakeasy v0.1.1-0.20220910012023-760eaf8b6816 // indirect
	github.com/bkielbasa/cyclop v1.2.0 // indirect
	github.com/blizzy78/varnamelen v0.8.0 // indirect
	github.com/bombsimon/wsl/v3 v3.3.0 // indirect
	github.com/breml/bidichk v0.2.3 // indirect
	github.com/breml/errchkjson v0.3.0 // indirect
	github.com/btcsuite/btcd v0.22.2 // indirect
	github.com/butuzov/ireturn v0.1.1 // indirect
	github.com/cespare/xxhash v1.1.0 // indirect
	github.com/cespare/xxhash/v2 v2.1.2 // indirect
	github.com/charithe/durationcheck v0.0.9 // indirect
	github.com/chavacava/garif v0.0.0-20220630083739-93517212f375 // indirect
	github.com/coinbase/rosetta-sdk-go v0.7.9 // indirect
	github.com/confio/ics23/go v0.9.0 // indirect
	github.com/cosmos/btcutil v1.0.5 // indirect
	github.com/cosmos/go-bip39 v1.0.0 // indirect
	github.com/cosmos/gorocksdb v1.2.0 // indirect
	github.com/cosmos/iavl v0.19.4 // indirect
	github.com/cosmos/ledger-cosmos-go v0.12.2 // indirect
	github.com/daixiang0/gci v0.8.1 // indirect
	github.com/danieljoos/wincred v1.1.2 // indirect
	github.com/davecgh/go-spew v1.1.1 // indirect
	github.com/denis-tingaikin/go-header v0.4.3 // indirect
	github.com/desertbit/timer v0.0.0-20180107155436-c41aec40b27f // indirect
	github.com/dgraph-io/badger/v2 v2.2007.4 // indirect
	github.com/dgraph-io/ristretto v0.1.0 // indirect
	github.com/dgryski/go-farm v0.0.0-20200201041132-a6ae2369ad13 // indirect
	github.com/dustin/go-humanize v1.0.1-0.20200219035652-afde56e7acac // indirect
	github.com/dvsekhvalnov/jose2go v1.5.0 // indirect
	github.com/esimonov/ifshort v1.0.4 // indirect
	github.com/ettle/strcase v0.1.1 // indirect
	github.com/fatih/color v1.13.0 // indirect
	github.com/fatih/structtag v1.2.0 // indirect
	github.com/felixge/httpsnoop v1.0.1 // indirect
	github.com/firefart/nonamedreturns v1.0.4 // indirect
	github.com/fsnotify/fsnotify v1.6.0 // indirect
	github.com/fzipp/gocyclo v0.6.0 // indirect
	github.com/go-critic/go-critic v0.6.5 // indirect
	github.com/go-kit/kit v0.12.0 // indirect
	github.com/go-kit/log v0.2.1 // indirect
	github.com/go-logfmt/logfmt v0.5.1 // indirect
	github.com/go-playground/locales v0.14.0 // indirect
	github.com/go-playground/universal-translator v0.18.0 // indirect
	github.com/go-toolsmith/astcast v1.0.0 // indirect
	github.com/go-toolsmith/astcopy v1.0.2 // indirect
	github.com/go-toolsmith/astequal v1.0.3 // indirect
	github.com/go-toolsmith/astfmt v1.0.0 // indirect
	github.com/go-toolsmith/astp v1.0.0 // indirect
	github.com/go-toolsmith/strparse v1.0.0 // indirect
	github.com/go-toolsmith/typep v1.0.2 // indirect
	github.com/go-xmlfmt/xmlfmt v0.0.0-20191208150333-d5b6f63a941b // indirect
	github.com/gobwas/glob v0.2.3 // indirect
	github.com/godbus/dbus v0.0.0-20190726142602-4481cbc300e2 // indirect
	github.com/gofrs/flock v0.8.1 // indirect
	github.com/gogo/gateway v1.1.0 // indirect
	github.com/gogo/protobuf v1.3.3 // indirect
	github.com/golang/protobuf v1.5.2 // indirect
	github.com/golang/snappy v0.0.4 // indirect
	github.com/golangci/check v0.0.0-20180506172741-cfe4005ccda2 // indirect
	github.com/golangci/dupl v0.0.0-20180902072040-3e9179ac440a // indirect
	github.com/golangci/go-misc v0.0.0-20220329215616-d24fe342adfe // indirect
	github.com/golangci/gofmt v0.0.0-20220901101216-f2edd75033f2 // indirect
	github.com/golangci/lint-1 v0.0.0-20191013205115-297bf364a8e0 // indirect
	github.com/golangci/maligned v0.0.0-20180506175553-b1d89398deca // indirect
	github.com/golangci/misspell v0.3.5 // indirect
	github.com/golangci/revgrep v0.0.0-20220804021717-745bb2f7c2e6 // indirect
	github.com/golangci/unconvert v0.0.0-20180507085042-28b1c447d1f4 // indirect
	github.com/google/btree v1.1.2 // indirect
	github.com/google/go-cmp v0.5.9 // indirect
	github.com/google/orderedcode v0.0.1 // indirect
	github.com/gordonklaus/ineffassign v0.0.0-20210914165742-4cc7213b9bc8 // indirect
	github.com/gorilla/handlers v1.5.1 // indirect
	github.com/gostaticanalysis/analysisutil v0.7.1 // indirect
	github.com/gostaticanalysis/comment v1.4.2 // indirect
	github.com/gostaticanalysis/forcetypeassert v0.1.0 // indirect
	github.com/gostaticanalysis/nilerr v0.1.1 // indirect
	github.com/grpc-ecosystem/go-grpc-middleware v1.3.0 // indirect
	github.com/grpc-ecosystem/grpc-gateway v1.16.0 // indirect
	github.com/gsterjov/go-libsecret v0.0.0-20161001094733-a6f4afe4910c // indirect
	github.com/gtank/merlin v0.1.1 // indirect
	github.com/gtank/ristretto255 v0.1.2 // indirect
	github.com/hashicorp/errwrap v1.1.0 // indirect
	github.com/hashicorp/go-immutable-radix v1.3.1 // indirect
	github.com/hashicorp/go-multierror v1.1.1 // indirect
	github.com/hashicorp/go-version v1.6.0 // indirect
	github.com/hashicorp/golang-lru v0.5.5-0.20210104140557-80c98217689d // indirect
	github.com/hashicorp/hcl v1.0.0 // indirect
	github.com/hdevalence/ed25519consensus v0.0.0-20220222234857-c00d1f31bab3 // indirect
	github.com/hexops/gotextdiff v1.0.3 // indirect
	github.com/improbable-eng/grpc-web v0.15.0 // indirect
	github.com/inconshreveable/mousetrap v1.0.1 // indirect
	github.com/jgautheron/goconst v1.5.1 // indirect
	github.com/jingyugao/rowserrcheck v1.1.1 // indirect
	github.com/jirfag/go-printf-func-name v0.0.0-20200119135958-7558a9eaa5af // indirect
	github.com/jmhodges/levigo v1.0.0 // indirect
	github.com/julz/importas v0.1.0 // indirect
	github.com/keybase/go-keychain v0.0.0-20190712205309-48d3d31d256d // indirect
	github.com/kisielk/errcheck v1.6.2 // indirect
	github.com/kisielk/gotool v1.0.0 // indirect
	github.com/klauspost/compress v1.15.11 // indirect
	github.com/kr/pretty v0.3.1 // indirect
	github.com/kulti/thelper v0.6.3 // indirect
	github.com/kunwardeep/paralleltest v1.0.6 // indirect
	github.com/kyoh86/exportloopref v0.1.8 // indirect
	github.com/ldez/gomoddirectives v0.2.3 // indirect
	github.com/ldez/tagliatelle v0.3.1 // indirect
	github.com/leodido/go-urn v1.2.1 // indirect
	github.com/leonklingele/grouper v1.1.0 // indirect
	github.com/lib/pq v1.10.7 // indirect
	github.com/libp2p/go-buffer-pool v0.1.0 // indirect
	github.com/lufeee/execinquery v1.2.1 // indirect
	github.com/magiconair/properties v1.8.6 // indirect
	github.com/maratori/testpackage v1.1.0 // indirect
	github.com/matoous/godox v0.0.0-20210227103229-6504466cf951 // indirect
	github.com/mattn/go-colorable v0.1.13 // indirect
	github.com/mattn/go-isatty v0.0.16 // indirect
	github.com/mattn/go-runewidth v0.0.14 // indirect
	github.com/matttproud/golang_protobuf_extensions v1.0.4 // indirect
	github.com/mbilski/exhaustivestruct v1.2.0 // indirect
	github.com/mgechev/revive v1.2.4 // indirect
	github.com/mimoo/StrobeGo v0.0.0-20210601165009-122bf33a46e0 // indirect
	github.com/minio/highwayhash v1.0.2 // indirect
	github.com/mitchellh/go-homedir v1.1.0 // indirect
	github.com/moricho/tparallel v0.2.1 // indirect
	github.com/mtibben/percent v0.2.1 // indirect
	github.com/nakabonne/nestif v0.3.1 // indirect
	github.com/nbutton23/zxcvbn-go v0.0.0-20210217022336-fa2cb2858354 // indirect
	github.com/nishanths/exhaustive v0.8.3 // indirect
	github.com/nishanths/predeclared v0.2.2 // indirect
	github.com/olekukonko/tablewriter v0.0.5 // indirect
	github.com/pelletier/go-toml v1.9.5 // indirect
	github.com/pelletier/go-toml/v2 v2.0.5 // indirect
	github.com/petermattis/goid v0.0.0-20180202154549-b0b1615b78e5 // indirect
	github.com/phayes/checkstyle v0.0.0-20170904204023-bfd46e6a821d // indirect
	github.com/pkg/errors v0.9.1 // indirect
	github.com/pmezard/go-difflib v1.0.0 // indirect
	github.com/polyfloyd/go-errorlint v1.0.5 // indirect
	github.com/prometheus/client_golang v1.14.0 // indirect
	github.com/prometheus/client_model v0.3.0 // indirect
	github.com/prometheus/common v0.37.0 // indirect
	github.com/prometheus/procfs v0.8.0 // indirect
	github.com/quasilyte/go-ruleguard v0.3.18 // indirect
	github.com/quasilyte/gogrep v0.0.0-20220828223005-86e4605de09f // indirect
	github.com/quasilyte/regex/syntax v0.0.0-20200407221936-30656e2c4a95 // indirect
	github.com/quasilyte/stdinfo v0.0.0-20220114132959-f7386bf02567 // indirect
	github.com/rakyll/statik v0.1.7 // indirect
	github.com/rcrowley/go-metrics v0.0.0-20201227073835-cf1acfcdf475 // indirect
	github.com/regen-network/cosmos-proto v0.3.1 // indirect
	github.com/rivo/uniseg v0.2.0 // indirect
	github.com/rs/xid v1.3.0 // indirect
	github.com/ryancurrah/gomodguard v1.2.4 // indirect
	github.com/ryanrolds/sqlclosecheck v0.3.0 // indirect
	github.com/sanposhiho/wastedassign/v2 v2.0.6 // indirect
	github.com/sasha-s/go-deadlock v0.3.1 // indirect
	github.com/securego/gosec/v2 v2.13.1 // indirect
	github.com/shazow/go-diff v0.0.0-20160112020656-b6b7b6733b8c // indirect
	github.com/sirupsen/logrus v1.9.0 // indirect
	github.com/sivchari/containedctx v1.0.2 // indirect
	github.com/sivchari/nosnakecase v1.7.0 // indirect
	github.com/sivchari/tenv v1.7.0 // indirect
	github.com/sonatard/noctx v0.0.1 // indirect
	github.com/sourcegraph/go-diff v0.6.1 // indirect
	github.com/spf13/afero v1.9.2 // indirect
	github.com/spf13/cast v1.5.0 // indirect
	github.com/spf13/jwalterweatherman v1.1.0 // indirect
	github.com/spf13/pflag v1.0.5 // indirect
	github.com/spf13/viper v1.14.0 // indirect
	github.com/ssgreg/nlreturn/v2 v2.2.1 // indirect
	github.com/stbenjam/no-sprintf-host-port v0.1.1 // indirect
	github.com/stretchr/objx v0.5.0 // indirect
	github.com/subosito/gotenv v1.4.1 // indirect
	github.com/syndtr/goleveldb v1.0.1-0.20210819022825-2ae1ddf74ef7 // indirect
	github.com/tdakkota/asciicheck v0.1.1 // indirect
	github.com/tendermint/go-amino v0.16.0 // indirect
	github.com/tendermint/tm-db v0.6.7 // indirect
	github.com/tetafro/godot v1.4.11 // indirect
	github.com/timakin/bodyclose v0.0.0-20210704033933-f49887972144 // indirect
	github.com/tomarrell/wrapcheck/v2 v2.7.0 // indirect
	github.com/tommy-muehle/go-mnd/v2 v2.5.1 // indirect
	github.com/ultraware/funlen v0.0.3 // indirect
	github.com/ultraware/whitespace v0.0.5 // indirect
	github.com/uudashr/gocognit v1.0.6 // indirect
	github.com/yagipy/maintidx v1.0.0 // indirect
	github.com/yeya24/promlinter v0.2.0 // indirect
	github.com/zondax/hid v0.9.1 // indirect
	gitlab.com/bosi/decorder v0.2.3 // indirect
	go.etcd.io/bbolt v1.3.6 // indirect
	go.uber.org/atomic v1.10.0 // indirect
	go.uber.org/multierr v1.8.0 // indirect
	go.uber.org/zap v1.23.0 // indirect
	golang.org/x/crypto v0.3.0 // indirect
	golang.org/x/exp/typeparams v0.0.0-20220827204233-334a2380cb91 // indirect
	golang.org/x/mod v0.7.0 // indirect
	golang.org/x/net v0.3.0 // indirect
	golang.org/x/sys v0.3.0 // indirect
	golang.org/x/term v0.3.0 // indirect
	golang.org/x/text v0.5.0 // indirect
	golang.org/x/tools v0.3.0 // indirect
	google.golang.org/genproto v0.0.0-20221207170731-23e4bf6bdc37 // indirect
	google.golang.org/protobuf v1.28.2-0.20220831092852-f930b1dc76e8 // indirect
	gopkg.in/ini.v1 v1.67.0 // indirect
	gopkg.in/yaml.v2 v2.4.0 // indirect
	honnef.co/go/tools v0.3.3 // indirect
	mvdan.cc/gofumpt v0.4.0 // indirect
	mvdan.cc/interfacer v0.0.0-20180901003855-c20040233aed // indirect
	mvdan.cc/lint v0.0.0-20170908181259-adc824a0674b // indirect
	mvdan.cc/unparam v0.0.0-20220706161116-678bad134442 // indirect
	nhooyr.io/websocket v1.8.6 // indirect
)

replace (
	github.com/99designs/keyring => github.com/cosmos/keyring v1.1.7-0.20210622111912-ef00f8ac3d76
	github.com/gogo/protobuf => github.com/regen-network/protobuf v1.3.2-alpha.regen.4
)
